<!--
Icon Frame

Frame for icon graphics that work in square and circle shaped contexts.

To the extent possible under law, Philipp Matthias Schäfer has waived all
copyright and related or neighboring rights to Icon Frame. This work
is published from: Germany.
-->
<svg width="100"
     height="100"
     viewBox="-1 -1 2 2"
     xmlns="http://www.w3.org/2000/svg"
     xmlns:xlink="http://www.w3.org/1999/xlink">
  <g stroke-width="0.01" stroke="black" fill="none">
    <path id="frame"
          d="
             M 0.894 0.448
             A 1 1 0 0 1 0.448 0.894
             L -0.448 0.894
             A 1 1 0 0 1 -0.894 0.448
             L -0.894 -0.448
             A 1 1 0 0 1 -0.448 -0.894
             L 0.448 -0.894
             A 1 1 0 0 1 0.894 -0.448
             Z"/>
    <g transform="scale(0.9)">
      <use xlink:href="#frame"/>
    </g>
  </g>
</svg>
